 -0.999509811       7.04333288E-05
 -0.998485327       2.17356210E-04
 -0.997368574       3.75636242E-04
 -0.996151447       5.42844587E-04
 -0.994824529       7.14557827E-04
 -0.993378401       8.85176065E-04
 -0.991802096       1.04933942E-03
 -0.990083873       1.20303244E-03
 -0.988210976       1.34386506E-03
 -0.986169636       1.47083832E-03
 -0.983944535       1.58395572E-03
 -0.981519103       1.68384891E-03
 -0.978875399       1.77170418E-03
 -0.975993872       1.84924481E-03
 -0.972852886       1.91799609E-03
 -0.969429255       1.97840878E-03
 -0.965697527       2.03108345E-03
 -0.961629868       2.07859091E-03
 -0.957196236       2.12398334E-03
 -0.952363491       2.16848846E-03
 -0.947095752       2.21256167E-03
 -0.941353917       2.25882675E-03
 -0.935095429       2.30989326E-03
 -0.928273678       2.36656424E-03
 -0.920837879       2.42451765E-03
 -0.912732899       2.48028408E-03
 -0.903898478       2.53843237E-03
 -0.894268990       2.60122749E-03
 -0.883772790       2.66347546E-03
 -0.872331858       2.72619654E-03
 -0.859861374       2.78253364E-03
 -0.846268594       2.83983094E-03
 -0.831452310       2.90436554E-03
 -0.815954208       2.96403491E-03
 -0.800412178       3.03011248E-03
 -0.784870207       3.10370023E-03
 -0.769328177       3.18415393E-03
 -0.753786206       3.25298333E-03
 -0.738244295       3.29968473E-03
 -0.722702324       3.33263958E-03
 -0.707160354       3.35660530E-03
 -0.691618323       3.38401296E-03
 -0.676076353       3.39728990E-03
 -0.660534382       3.40392161E-03
 -0.644992352       3.39951902E-03
 -0.629450381       3.38306930E-03
 -0.613908350       3.37331393E-03
 -0.598366380       3.37105570E-03
 -0.582824469       3.38752591E-03
 -0.567282438       3.41848191E-03
 -0.551740408       3.44761927E-03
 -0.536198497       3.46609205E-03
 -0.520656526       3.49141471E-03
 -0.505114496       3.51104047E-03
 -0.489572525       3.52315139E-03
 -0.474030495       3.53427418E-03
 -0.458488524       3.54625192E-03
 -0.442946553       3.56893172E-03
 -0.427404612       3.61082423E-03
 -0.411862612       3.67282447E-03
 -0.396320581       3.74795240E-03
 -0.380778611       3.82944779E-03
 -0.365236670       3.91433388E-03
 -0.349694669       3.99334449E-03
 -0.334152669       4.06117178E-03
 -0.318610668       4.11009882E-03
 -0.303068668       4.14139172E-03
 -0.287526727       4.15583653E-03
 -0.271984726       4.15448332E-03
 -0.256442755       4.14458429E-03
 -0.240900755       4.13189968E-03
 -0.225358784       4.11811378E-03
 -0.209816799       4.10355255E-03
 -0.194274798       4.09715716E-03
 -0.178732827       4.09884984E-03
 -0.163190827       4.09879163E-03
 -0.147648841       4.09308961E-03
 -0.132106870       4.09000786E-03
 -0.116564892       4.09665331E-03
 -0.101022899       4.10851557E-03
  -8.54809135E-02   4.11753356E-03
  -6.99389279E-02   4.12675366E-03
  -5.43969423E-02   4.13768319E-03
  -3.88549604E-02   4.14538011E-03
  -2.33129766E-02   4.14933031E-03
  -7.77099235E-03   4.15149843E-03
   7.77099235E-03   4.15489497E-03
   2.33129766E-02   4.15817089E-03
   3.88549604E-02   4.16453136E-03
   5.43969423E-02   4.17605927E-03
   6.99389279E-02   4.18668985E-03
   8.54809135E-02   4.18746006E-03
  0.101022899       4.18014359E-03
  0.116564892       4.17321734E-03
  0.132106870       4.17259941E-03
  0.147648841       4.17775102E-03
  0.163190842       4.18728311E-03
  0.178732827       4.20084642E-03
  0.194274798       4.21408704E-03
  0.209816799       4.22061374E-03
  0.225358784       4.22309805E-03
  0.240900755       4.21819696E-03
  0.256442755       4.20753146E-03
  0.271984756       4.19622799E-03
  0.287526727       4.18879418E-03
  0.303068697       4.18291660E-03
  0.318610668       4.17145202E-03
  0.334152669       4.15669708E-03
  0.349694669       4.13802126E-03
  0.365236640       4.13042773E-03
  0.380778581       4.12705867E-03
  0.396320611       4.11633682E-03
  0.411862612       4.10488341E-03
  0.427404612       4.09382721E-03
  0.442946553       4.08459967E-03
  0.458488494       4.07642545E-03
  0.474030495       4.06813994E-03
  0.489572525       4.06233128E-03
  0.505114496       4.05580644E-03
  0.520656526       4.03536204E-03
  0.536198497       4.00531199E-03
  0.551740408       3.97453131E-03
  0.567282438       3.94038064E-03
  0.582824469       3.92447086E-03
  0.598366380       3.91719025E-03
  0.613908350       3.89800197E-03
  0.629450381       3.86600755E-03
  0.644992352       3.82919004E-03
  0.660534382       3.77572491E-03
  0.676076353       3.72691755E-03
  0.691618323       3.68399313E-03
  0.707160354       3.64966807E-03
  0.722702265       3.62006342E-03
  0.738244236       3.57751921E-03
  0.753786147       3.52599425E-03
  0.769328177       3.47546325E-03
  0.784870207       3.44243040E-03
  0.800412178       3.41605791E-03
  0.815954208       3.38597503E-03
  0.831452310       3.35336849E-03
  0.846268535       3.28876404E-03
  0.859861374       3.21827503E-03
  0.872331858       3.15161166E-03
  0.883772790       3.07308650E-03
  0.894268990       2.99116666E-03
  0.903898478       2.91256933E-03
  0.912732840       2.83714244E-03
  0.920837879       2.77134264E-03
  0.928273678       2.71483022E-03
  0.935095429       2.66445847E-03
  0.941353917       2.61869351E-03
  0.947095692       2.57800613E-03
  0.952363431       2.53883610E-03
  0.957196236       2.49833427E-03
  0.961629868       2.45649484E-03
  0.965697527       2.41131731E-03
  0.969429255       2.35957559E-03
  0.972852945       2.29895674E-03
  0.975993872       2.22818996E-03
  0.978875399       2.14493182E-03
  0.981519103       2.04608473E-03
  0.983944595       1.92917872E-03
  0.986169636       1.79261365E-03
  0.988210976       1.63608487E-03
  0.990083873       1.46096025E-03
  0.991802156       1.27019174E-03
  0.993378401       1.06806366E-03
  0.994824529       8.60028144E-04
  0.996151328       6.52332150E-04
  0.997368574       4.51065775E-04
  0.998485327       2.60944420E-04
  0.999509811       8.45573013E-05
